Engine/Binaries/Win64/UE4Game.exe	2021-10-12T14:03:00.340Z
Engine/Binaries/Win64/OpenImageDenoise.dll	2021-10-12T14:01:09.970Z
Engine/Binaries/Win64/tbb12.dll	2021-10-12T14:01:20.361Z
Engine/Extras/Redist/en-us/UE4PrereqSetup_x64.exe	2021-10-12T14:12:30.624Z
Engine/Binaries/ThirdParty/Oculus/OVRPlugin/OVRPlugin/Win64/OVRPlugin.dll	2021-10-12T13:57:29.626Z
Engine/Binaries/ThirdParty/DbgHelp/dbghelp.dll	2021-10-12T13:57:03.337Z
Engine/Binaries/ThirdParty/PhysX3/Win64/VS2015/PxFoundationPROFILE_x64.dll	2021-10-12T13:58:14.460Z
Engine/Binaries/ThirdParty/PhysX3/Win64/VS2015/PxPvdSDKPROFILE_x64.dll	2021-10-12T13:58:14.484Z
Engine/Binaries/ThirdParty/PhysX3/Win64/VS2015/PhysX3PROFILE_x64.dll	2021-10-12T13:58:13.456Z
Engine/Binaries/ThirdParty/PhysX3/Win64/VS2015/PhysX3CookingPROFILE_x64.dll	2021-10-12T13:58:13.430Z
Engine/Binaries/ThirdParty/PhysX3/Win64/VS2015/PhysX3CommonPROFILE_x64.dll	2021-10-12T13:58:13.347Z
Engine/Binaries/ThirdParty/PhysX3/Win64/VS2015/APEX_ClothingPROFILE_x64.dll	2021-10-12T13:58:04.604Z
Engine/Binaries/ThirdParty/PhysX3/Win64/VS2015/APEX_LegacyPROFILE_x64.dll	2021-10-12T13:58:05.265Z
Engine/Binaries/ThirdParty/PhysX3/Win64/VS2015/ApexFrameworkPROFILE_x64.dll	2021-10-12T13:58:11.131Z
Engine/Binaries/ThirdParty/PhysX3/Win64/VS2015/NvClothPROFILE_x64.dll	2021-10-12T13:58:13.148Z
Engine/Binaries/ThirdParty/Ogg/Win64/VS2015/libogg_64.dll	2021-10-12T13:57:29.754Z
Engine/Binaries/ThirdParty/Vorbis/Win64/VS2015/libvorbis_64.dll	2021-10-12T13:59:28.311Z
Engine/Binaries/ThirdParty/Vorbis/Win64/VS2015/libvorbisfile_64.dll	2021-10-12T13:59:28.336Z
Engine/Binaries/ThirdParty/NVIDIA/NVaftermath/Win64/GFSDK_Aftermath_Lib.x64.dll	2021-10-12T13:57:28.192Z
Engine/Binaries/ThirdParty/OpenXR/win64/openxr_loader.dll	2021-10-12T13:57:30.791Z
Engine/Binaries/ThirdParty/OpenVR/OpenVRv1_5_17/Win64/openvr_api.dll	2021-10-12T13:57:30.708Z
Engine/Binaries/ThirdParty/NVIDIA/GeForceNOW/Win64/GfnRuntimeSdk.dll	2021-10-12T13:57:28.121Z
Engine/Binaries/ThirdParty/Windows/WinPixEventRuntime/x64/WinPixEventRuntime.dll	2021-10-12T13:59:30.137Z
Engine/Binaries/ThirdParty/Windows/XAudio2_9/x64/xaudio2_9redist.dll	2021-10-12T13:59:34.963Z
Project_1.exe	2021-11-26T18:15:43.426Z
